DEFINE JOB EXPORT_TDARG_TABLENAME_TABLE_TO_FILE
DESCRIPTION 'EXPORT TDARG_TABLENAME TABLE TO A FILE'
(

/*****************************/

DEFINE SCHEMA TDARG_TABLENAME_SCHEMA

DESCRIPTION 'SAMPLE TDARG_TABLENAME SCHEMA'

(

TDARG_SCHEMADEFINITION
);

/*****************************/



/*****************************/

DEFINE OPERATOR FILE_WRITER()

DESCRIPTION 'TERADATA PARALLEL TRANSPORTER DATA CONNECTOR OPERATOR'

TYPE DATACONNECTOR CONSUMER

SCHEMA *

ATTRIBUTES
(

VARCHAR PrivateLogName    = 'file_writer_privatelog',

VARCHAR FileName          = 'TDARG_FILENAME.out',

VARCHAR IndicatorMode     = 'N',

VARCHAR OpenMode          = 'Write',

VARCHAR Format = 'DELIMITED',

VARCHAR TextDelimiter = @MyDelimiter,

VARCHAR TRACELEVEL='ALL'



);
/*****************************/





/*****************************/

DEFINE OPERATOR EXPORT_OPERATOR()

DESCRIPTION 'TERADATA PARALLEL TRANSPORTER EXPORT OPERATOR'

TYPE EXPORT

SCHEMA TDARG_TABLENAME_SCHEMA
ATTRIBUTES
(
VARCHAR PrivateLogName    = 'export_privatelog',

INTEGER MaxSessions       = @MaxSessions ,

INTEGER MinSessions       = @MinSessions,

VARCHAR TdpId             = @MyTdPid,

VARCHAR UserName          = @MyUserName,

VARCHAR UserPassword      = @MyPassword,

VARCHAR AccountId,

VARCHAR SelectStmt        = 'select    
  TDARG_SCHEMAEXPORTDEFINITION
from SOURCE_DB.SOURCE_TABLE  where  TDARG_WHERE_CLAUSE ; '
);

/*****************************/



STEP export_to_file

(

APPLY TO OPERATOR (FILE_WRITER() )

SELECT * FROM OPERATOR (EXPORT_OPERATOR() [1] );

);

);
